Incline/Incline_Normal_height1_Run2.csv

#Digilent WaveForms Oscilloscope Acquisition
#Device Name: Discovery2
#Serial Number: SN:210321A68522
#Date Time: 2021-12-03 11:13:43.992
#Sample rate: 50000Hz
#Samples: 100000
#Trigger: Source: Channel 1 Type: Edge Condition: Rising Level: 2 V Hyst.: Auto HoldOff: 0 s
#Channel 1: Range: 500 mV/div Offset: -2 V Attenuation: 1 X
#Power Supplies: ON
#Positive Supply: ON
#Voltage: 5 V
#Negative Supply: ON
#Voltage: -1 V

Group: 34
Turn: Right
Run: 40
Ball radius: 12.5mm
Angle: High
Time (s),Channel 1 (V)
-0.2,0.3097403077353502
-0.1999799999999999,0.3100722181367501
-0.1999599999999999,0.3097403077353502
-0.19994,0.3097403077353502
-0.19992,0.3097403077353502
-0.1999,0.3090764869325506
-0.1998799999999999,0.3097403077353502
-0.1998599999999999,0.3094083973339503
-0.1998399999999999,0.3094083973339503
-0.19982,0.3100722181367501
-0.1998,0.3097403077353502
-0.19978,0.3104041285381498
-0.1997599999999999,0.3100722181367501
-0.1997399999999999,0.3090764869325506
-0.19972,0.3107360389395497
-0.1997,0.3094083973339503
-0.19968,0.3100722181367501
-0.1996599999999999,0.3104041285381498
-0.1996399999999999,0.3097403077353502
-0.1996199999999999,0.3100722181367501
-0.1996,0.3104041285381498
-0.19958,0.3090764869325506
-0.19956,0.3107360389395497
-0.1995399999999999,0.3100722181367501
-0.1995199999999999,0.3100722181367501
-0.1995,0.3097403077353502
-0.19948,0.3094083973339503
-0.19946,0.3100722181367501
-0.19944,0.3090764869325506
-0.1994199999999999,0.3097403077353502
-0.1993999999999999,0.3097403077353502
-0.19938,0.3094083973339503
-0.19936,0.3104041285381498
-0.19934,0.3100722181367501
-0.1993199999999999,0.3100722181367501
-0.1992999999999999,0.3107360389395497
-0.1992799999999999,0.3094083973339503
-0.19926,0.3097403077353502
-0.19924,0.3100722181367501
-0.19922,0.3090764869325506
-0.1991999999999999,0.3100722181367501
-0.1991799999999999,0.3094083973339503
-0.19916,0.3090764869325506
-0.19914,0.3094083973339503
-0.19912,0.3097403077353502
-0.1990999999999999,0.3107360389395497
-0.1990799999999999,0.3100722181367501
-0.1990599999999999,0.3104041285381498
-0.19904,0.3104041285381498
-0.19902,0.3094083973339503
-0.199,0.3090764869325506
-0.1989799999999999,0.3094083973339503
-0.1989599999999999,0.308412666129751
-0.19894,0.3100722181367501
-0.19892,0.3090764869325506
-0.1989,0.3094083973339503
-0.1988799999999999,0.3104041285381498
-0.1988599999999999,0.3094083973339503
-0.1988399999999999,0.3104041285381498
-0.19882,0.3100722181367501
-0.1988,0.3097403077353502
-0.19878,0.3107360389395497
-0.1987599999999999,0.3097403077353502
-0.1987399999999999,0.3107360389395497
-0.19872,0.3104041285381498
-0.1987,0.3097403077353502
-0.19868,0.3104041285381498
-0.1986599999999999,0.3097403077353502
-0.1986399999999999,0.3100722181367501
-0.1986199999999999,0.3097403077353502
-0.1986,0.3090764869325506
-0.19858,0.3097403077353502
-0.19856,0.3094083973339503
-0.1985399999999999,0.3094083973339503
-0.1985199999999999,0.3100722181367501
-0.1985,0.3094083973339503
-0.19848,0.3100722181367501
-0.19846,0.3097403077353502
-0.1984399999999999,0.3094083973339503
-0.1984199999999999,0.3100722181367501
-0.1983999999999999,0.3094083973339503
-0.19838,0.3094083973339503
-0.19836,0.3100722181367501
-0.19834,0.3090764869325506
-0.1983199999999999,0.3100722181367501
-0.1982999999999999,0.3097403077353502
-0.1982799999999999,0.3094083973339503
-0.19826,0.3097403077353502
-0.19824,0.3090764869325506
-0.19822,0.3100722181367501
-0.1981999999999999,0.3100722181367501
-0.1981799999999999,0.3090764869325506
-0.19816,0.3104041285381498
-0.19814,0.3094083973339503
-0.19812,0.3097403077353502
-0.1980999999999999,0.3100722181367501
-0.1980799999999999,0.3087445765311507
-0.1980599999999999,0.3100722181367501
-0.19804,0.3100722181367501
-0.19802,0.3094083973339503
-0.198,0.3100722181367501
-0.1979799999999999,0.3094083973339503
-0.1979599999999999,0.3100722181367501
-0.19794,0.3094083973339503
-0.19792,0.3097403077353502
-0.1979,0.3104041285381498
-0.1978799999999999,0.3090764869325506
-0.1978599999999999,0.3107360389395497
-0.1978399999999999,0.3094083973339503
-0.19782,0.3097403077353502
-0.1978,0.3100722181367501
-0.19778,0.3097403077353502
-0.1977599999999999,0.3097403077353502
-0.1977399999999999,0.3097403077353502
-0.19772,0.3090764869325506
-0.1977,0.3107360389395497
-0.19768,0.3094083973339503
-0.1976599999999999,0.3100722181367501
-0.1976399999999999,0.3100722181367501
-0.1976199999999999,0.3097403077353502
-0.1976,0.3100722181367501
-0.19758,0.3097403077353502
-0.19756,0.3097403077353502
-0.1975399999999999,0.3100722181367501
-0.1975199999999999,0.3100722181367501
-0.1975,0.3094083973339503
-0.19748,0.3104041285381498
-0.19746,0.3094083973339503
-0.1974399999999999,0.3104041285381498
-0.1974199999999999,0.3094083973339503
-0.1973999999999999,0.3097403077353502
-0.19738,0.3100722181367501
-0.19736,0.3104041285381498
-0.19734,0.3097403077353502
-0.1973199999999999,0.3097403077353502
-0.1972999999999999,0.3094083973339503
-0.19728,0.3100722181367501
-0.19726,0.3094083973339503
-0.19724,0.3104041285381498
-0.19722,0.3097403077353502
-0.1971999999999999,0.3094083973339503
-0.1971799999999999,0.3097403077353502
-0.19716,0.3094083973339503
-0.19714,0.3097403077353502
-0.19712,0.3097403077353502
-0.1970999999999999,0.3094083973339503
-0.1970799999999999,0.3100722181367501
-0.1970599999999999,0.3100722181367501
-0.19704,0.3097403077353502
-0.19702,0.3100722181367501
-0.197,0.3097403077353502
-0.1969799999999999,0.3097403077353502
-0.1969599999999999,0.3107360389395497
-0.19694,0.3094083973339503
-0.19692,0.3100722181367501
-0.1969,0.3100722181367501
-0.1968799999999999,0.3097403077353502
-0.1968599999999999,0.3100722181367501
-0.1968399999999999,0.3094083973339503
-0.19682,0.3107360389395497
-0.1968,0.3094083973339503
-0.19678,0.3100722181367501
-0.1967599999999999,0.3104041285381498
-0.1967399999999999,0.3104041285381498
-0.19672,0.3100722181367501
-0.1967,0.3100722181367501
-0.19668,0.3097403077353502
-0.1966599999999999,0.3100722181367501
-0.1966399999999999,0.3100722181367501
-0.1966199999999999,0.3097403077353502
-0.1966,0.3094083973339503
-0.19658,0.3094083973339503
-0.19656,0.3097403077353502
-0.1965399999999999,0.3100722181367501
-0.1965199999999999,0.3094083973339503
-0.1965,0.3107360389395497
-0.19648,0.3094083973339503
-0.19646,0.3100722181367501
-0.1964399999999999,0.3097403077353502
-0.1964199999999999,0.3100722181367501
-0.1963999999999999,0.3100722181367501
-0.19638,0.3097403077353502
-0.19636,0.3094083973339503
-0.19634,0.3100722181367501
-0.1963199999999999,0.3094083973339503
-0.1962999999999999,0.3094083973339503
-0.19628,0.3100722181367501
-0.19626,0.3100722181367501
-0.19624,0.3097403077353502
-0.19622,0.3094083973339503
-0.1961999999999999,0.3094083973339503
-0.1961799999999999,0.3090764869325506
-0.19616,0.3090764869325506
-0.19614,0.3107360389395497
-0.19612,0.3100722181367501
-0.1960999999999999,0.3113998597423493
-0.1960799999999999,0.3107360389395497
-0.1960599999999999,0.3100722181367501
-0.19604,0.3104041285381498
-0.19602,0.3087445765311507
-0.196,0.3090764869325506
-0.1959799999999999,0.3094083973339503
-0.1959599999999999,0.3090764869325506
-0.19594,0.3097403077353502
-0.19592,0.3100722181367501
-0.1959,0.3097403077353502
-0.1958799999999999,0.3100722181367501
-0.1958599999999999,0.3094083973339503
-0.1958399999999999,0.3100722181367501
-0.19582,0.3100722181367501
-0.1958,0.3090764869325506
-0.19578,0.3100722181367501
-0.1957599999999999,0.3097403077353502
-0.1957399999999999,0.3097403077353502
-0.19572,0.3097403077353502
-0.1957,0.3097403077353502
-0.19568,0.3100722181367501
-0.1956599999999999,0.3094083973339503
-0.1956399999999999,0.3097403077353502
-0.1956199999999999,0.3097403077353502
-0.1956,0.3097403077353502
-0.19558,0.3097403077353502
-0.19556,0.3100722181367501
-0.1955399999999999,0.3094083973339503
-0.1955199999999999,0.3104041285381498
-0.1955,0.3097403077353502
-0.19548,0.3100722181367501
-0.19546,0.3097403077353502
-0.1954399999999999,0.3094083973339503
-0.1954199999999999,0.3097403077353502
-0.1953999999999999,0.3094083973339503
-0.19538,0.3097403077353502
-0.19536,0.3100722181367501
-0.19534,0.3100722181367501
-0.1953199999999999,0.3100722181367501
-0.1952999999999999,0.3100722181367501
-0.19528,0.3097403077353502
-0.19526,0.3097403077353502
-0.19524,0.3104041285381498
-0.1952199999999999,0.3097403077353502
-0.1951999999999999,0.3097403077353502
-0.1951799999999999,0.3097403077353502
-0.19516,0.3097403077353502
-0.19514,0.3100722181367501
-0.19512,0.3090764869325506
-0.1950999999999999,0.3097403077353502
-0.1950799999999999,0.3097403077353502
-0.1950599999999999,0.3094083973339503
-0.19504,0.3100722181367501
-0.19502,0.3097403077353502
-0.195,0.3100722181367501
-0.1949799999999999,0.3094083973339503
-0.1949599999999999,0.3097403077353502
-0.19494,0.3097403077353502
-0.19492,0.3097403077353502
-0.1949,0.3094083973339503
-0.1948799999999999,0.3090764869325506
-0.1948599999999999,0.3097403077353502
-0.1948399999999999,0.3100722181367501
-0.19482,0.3097403077353502
-0.1948,0.3097403077353502
-0.19478,0.3100722181367501
-0.1947599999999999,0.3094083973339503
-0.1947399999999999,0.3104041285381498
-0.19472,0.3100722181367501
-0.1947,0.3090764869325506
-0.19468,0.3104041285381498
-0.1946599999999999,0.3094083973339503
-0.1946399999999999,0.3100722181367501
-0.1946199999999999,0.3097403077353502
-0.1946,0.3097403077353502
-0.19458,0.3104041285381498
-0.19456,0.3094083973339503
-0.1945399999999999,0.3100722181367501
-0.1945199999999999,0.3100722181367501
-0.1945,0.3097403077353502
-0.19448,0.3104041285381498
-0.19446,0.3097403077353502
-0.1944399999999999,0.3100722181367501
-0.1944199999999999,0.3097403077353502
-0.1943999999999999,0.3097403077353502
-0.19438,0.3094083973339503
-0.19436,0.3097403077353502
-0.19434,0.3097403077353502
-0.1943199999999999,0.3090764869325506
-0.1942999999999999,0.3097403077353502
-0.19428,0.3097403077353502
-0.19426,0.3094083973339503
-0.19424,0.3104041285381498
-0.1942199999999999,0.3097403077353502
-0.1941999999999999,0.3094083973339503
-0.1941799999999999,0.3100722181367501
-0.19416,0.3094083973339503
-0.19414,0.3097403077353502
-0.19412,0.3097403077353502
-0.1940999999999999,0.3097403077353502
-0.1940799999999999,0.3097403077353502
-0.19406,0.3097403077353502
-0.19404,0.3097403077353502
-0.19402,0.3094083973339503
-0.194,0.3097403077353502
-0.1939799999999999,0.3097403077353502
-0.1939599999999999,0.3094083973339503
-0.19394,0.3100722181367501
-0.19392,0.3100722181367501
-0.1939,0.3090764869325506
-0.1938799999999999,0.3100722181367501
-0.1938599999999999,0.3100722181367501
-0.1938399999999999,0.3100722181367501
-0.19382,0.3100722181367501
-0.1938,0.3094083973339503
-0.19378,0.3100722181367501
-0.1937599999999999,0.3100722181367501
-0.1937399999999999,0.3094083973339503
-0.19372,0.3094083973339503
-0.1937,0.3090764869325506
-0.19368,0.3100722181367501
-0.1936599999999999,0.3097403077353502
-0.1936399999999999,0.3094083973339503
-0.1936199999999999,0.3104041285381498
-0.1936,0.3087445765311507
-0.19358,0.3097403077353502
-0.19356,0.3100722181367501
-0.1935399999999999,0.3094083973339503
-0.1935199999999999,0.3100722181367501
-0.1935,0.3090764869325506
-0.19348,0.3097403077353502
-0.19346,0.3097403077353502
-0.1934399999999999,0.3094083973339503
-0.1934199999999999,0.3097403077353502
-0.1933999999999999,0.3090764869325506
-0.19338,0.3100722181367501
-0.19336,0.3097403077353502
-0.19334,0.3097403077353502
-0.1933199999999999,0.3100722181367501
-0.1932999999999999,0.3100722181367501
-0.19328,0.3104041285381498
-0.19326,0.3104041285381498
-0.19324,0.3110679493409494
-0.1932199999999999,0.3117317701437492
-0.1931999999999999,0.3113998597423493
-0.1931799999999999,0.3120636805451489
-0.19316,0.3120636805451489
-0.19314,0.3127275013479485
-0.19312,0.3123955909465488
-0.1930999999999999,0.3123955909465488
-0.1930799999999999,0.3133913221507483
-0.19306,0.3127275013479485
-0.19304,0.3130594117493484
-0.19302,0.3127275013479485
-0.1929999999999999,0.3130594117493484
-0.1929799999999999,0.3130594117493484
-0.1929599999999999,0.3127275013479485
-0.19294,0.3127275013479485
-0.19292,0.3130594117493484
-0.1929,0.3127275013479485
-0.1928799999999999,0.3130594117493484
-0.1928599999999999,0.3133913221507483
-0.1928399999999999,0.3133913221507483
-0.19282,0.3130594117493484
-0.1928,0.3130594117493484
-0.19278,0.313723232552148
-0.1927599999999999,0.3133913221507483
-0.1927399999999999,0.313723232552148
-0.19272,0.3133913221507483
-0.1927,0.3143870533549475
-0.19268,0.3160466053619466
-0.1926599999999999,0.3163785157633465
-0.1926399999999999,0.3163785157633465
-0.1926199999999999,0.3177061573689457
-0.1926,0.3170423365661461
-0.19258,0.3167104261647464
-0.19256,0.3163785157633465
-0.1925399999999999,0.3167104261647464
-0.1925199999999999,0.317374246967546
-0.1925,0.317374246967546
-0.19248,0.3170423365661461
-0.19246,0.3170423365661461
-0.1924399999999999,0.3163785157633465
-0.1924199999999999,0.3170423365661461
-0.1923999999999999,0.3163785157633465
-0.19238,0.3167104261647464
-0.19236,0.3167104261647464
-0.19234,0.3160466053619466
-0.1923199999999999,0.3167104261647464
-0.1922999999999999,0.3167104261647464
-0.19228,0.3167104261647464
-0.19226,0.3167104261647464
-0.19224,0.3163785157633465
-0.1922199999999999,0.317374246967546
-0.1921999999999999,0.3170423365661461
-0.1921799999999999,0.3163785157633465
-0.19216,0.3177061573689457
-0.19214,0.3170423365661461
-0.19212,0.3163785157633465
-0.1920999999999999,0.3170423365661461
-0.1920799999999999,0.3163785157633465
-0.19206,0.317374246967546
-0.19204,0.3170423365661461
-0.19202,0.3163785157633465
-0.1919999999999999,0.3180380677703456
-0.1919799999999999,0.3170423365661461
-0.1919599999999999,0.3177061573689457
-0.19194,0.3180380677703456
-0.19192,0.3167104261647464
-0.1919,0.3177061573689457
-0.1918799999999999,0.317374246967546
-0.1918599999999999,0.3160466053619466
-0.19184,0.3180380677703456
-0.19182,0.3167104261647464
-0.1918,0.3170423365661461
-0.19178,0.3180380677703456
-0.1917599999999999,0.3163785157633465
-0.1917399999999999,0.3170423365661461
-0.19172,0.3177061573689457
-0.1917,0.317374246967546
-0.19168,0.3170423365661461
-0.1916599999999999,0.3167104261647464
-0.1916399999999999,0.3177061573689457
-0.1916199999999999,0.3167104261647464
-0.1916,0.3167104261647464
-0.19158,0.3163785157633465
-0.19156,0.3170423365661461
-0.1915399999999999,0.3167104261647464
-0.1915199999999999,0.3170423365661461
-0.1915,0.3167104261647464
-0.19148,0.317374246967546
-0.19146,0.3170423365661461
-0.1914399999999999,0.317374246967546
-0.1914199999999999,0.3163785157633465
-0.1913999999999999,0.317374246967546
-0.19138,0.317374246967546
-0.19136,0.3163785157633465
-0.19134,0.3170423365661461
-0.1913199999999999,0.3167104261647464
-0.1912999999999999,0.3163785157633465
-0.19128,0.3167104261647464
-0.19126,0.3147189637563474
-0.19124,0.3163785157633465
-0.1912199999999999,0.3157146949605469
-0.1911999999999999,0.3157146949605469
-0.1911799999999999,0.3157146949605469
-0.19116,0.3150508741577474
-0.19114,0.315382784559147
-0.19112,0.3157146949605469
-0.1910999999999999,0.3147189637563474
-0.1910799999999999,0.3143870533549475
-0.19106,0.3150508741577474
-0.19104,0.3143870533549475
-0.19102,0.3147189637563474
-0.1909999999999999,0.3140551429535479
-0.1909799999999999,0.3140551429535479
-0.1909599999999999,0.315382784559147
-0.19094,0.3133913221507483
-0.19092,0.3147189637563474
-0.1909,0.3140551429535479
-0.1908799999999999,0.3140551429535479
-0.1908599999999999,0.3140551429535479
-0.19084,0.3133913221507483
-0.19082,0.3147189637563474
-0.1908,0.3140551429535479
-0.1907799999999999,0.3147189637563474
-0.1907599999999999,0.315382784559147
-0.1907399999999999,0.3150508741577474
-0.19072,0.3150508741577474
-0.1907,0.3157146949605469
-0.19068,0.3157146949605469
-0.1906599999999999,0.315382784559147
-0.1906399999999999,0.315382784559147
-0.1906199999999999,0.3147189637563474
-0.1906,0.3160466053619466
-0.19058,0.3140551429535479
-0.19056,0.3150508741577474
-0.1905399999999999,0.3147189637563474
-0.1905199999999999,0.3147189637563474
-0.1905,0.3147189637563474
-0.19048,0.3140551429535479
-0.19046,0.3147189637563474
-0.1904399999999999,0.3157146949605469
-0.1904199999999999,0.3140551429535479
-0.1903999999999999,0.3147189637563474
-0.19038,0.3147189637563474
-0.19036,0.313723232552148
-0.19034,0.3147189637563474
-0.1903199999999999,0.313723232552148
-0.1902999999999999,0.3140551429535479
-0.19028,0.3140551429535479
-0.19026,0.313723232552148
-0.19024,0.3143870533549475
-0.1902199999999999,0.3143870533549475
-0.1901999999999999,0.313723232552148
-0.1901799999999999,0.315382784559147
-0.19016,0.3140551429535479
-0.19014,0.315382784559147
-0.19012,0.313723232552148
-0.1900999999999999,0.3150508741577474
-0.1900799999999999,0.3150508741577474
-0.19006,0.3140551429535479
-0.19004,0.3143870533549475
-0.19002,0.3157146949605469
-0.1899999999999999,0.3147189637563474
-0.1899799999999999,0.3157146949605469
-0.1899599999999999,0.3140551429535479
-0.18994,0.3150508741577474
-0.18992,0.3150508741577474
-0.1899,0.3143870533549475
-0.1898799999999999,0.3143870533549475
-0.1898599999999999,0.3143870533549475
-0.18984,0.3147189637563474
-0.18982,0.3150508741577474
-0.1898,0.313723232552148
-0.1897799999999999,0.3143870533549475
-0.1897599999999999,0.3147189637563474
-0.1897399999999999,0.3130594117493484
-0.18972,0.3147189637563474
-0.1897,0.3130594117493484
-0.18968,0.3130594117493484
-0.1896599999999999,0.313723232552148
-0.1896399999999999,0.3123955909465488
-0.18962,0.3133913221507483
-0.1896,0.3127275013479485
-0.18958,0.3120636805451489
-0.18956,0.3130594117493484
-0.1895399999999999,0.3113998597423493
-0.1895199999999999,0.3123955909465488
-0.1895,0.3123955909465488
-0.18948,0.3117317701437492
-0.18946,0.3120636805451489
-0.1894399999999999,0.3120636805451489
-0.1894199999999999,0.3127275013479485
-0.1893999999999999,0.313723232552148
-0.18938,0.3117317701437492
-0.18936,0.3130594117493484
-0.18934,0.3130594117493484
-0.1893199999999999,0.3127275013479485
-0.1892999999999999,0.3133913221507483
-0.18928,0.3127275013479485
-0.18926,0.313723232552148
-0.18924,0.3130594117493484
-0.1892199999999999,0.3123955909465488
-0.1891999999999999,0.3140551429535479
-0.1891799999999999,0.3133913221507483
-0.18916,0.3130594117493484
-0.18914,0.3133913221507483
-0.18912,0.3127275013479485
-0.1890999999999999,0.313723232552148
-0.1890799999999999,0.3127275013479485
-0.18906,0.3113998597423493
-0.18904,0.3113998597423493
-0.18902,0.3104041285381498
-0.1889999999999999,0.3107360389395497
-0.1889799999999999,0.3110679493409494
-0.1889599999999999,0.3100722181367501
-0.18894,0.3113998597423493
-0.18892,0.3104041285381498
-0.1889,0.3104041285381498
-0.1888799999999999,0.3107360389395497
-0.1888599999999999,0.3104041285381498
-0.18884,0.3104041285381498
-0.18882,0.3100722181367501
-0.1888,0.3107360389395497
-0.1887799999999999,0.3104041285381498
-0.1887599999999999,0.3097403077353502
-0.1887399999999999,0.3107360389395497
-0.18872,0.3107360389395497
-0.1887,0.3100722181367501
-0.18868,0.3107360389395497
-0.1886599999999999,0.3100722181367501
-0.1886399999999999,0.3104041285381498
-0.18862,0.3107360389395497
-0.1886,0.3097403077353502
-0.18858,0.3110679493409494
-0.1885599999999999,0.3097403077353502
-0.1885399999999999,0.3104041285381498
-0.1885199999999999,0.3110679493409494
-0.1885,0.3104041285381498
-0.18848,0.3107360389395497
-0.18846,0.3104041285381498
-0.1884399999999999,0.3100722181367501
-0.1884199999999999,0.3104041285381498
-0.1883999999999999,0.3104041285381498
-0.18838,0.3104041285381498
-0.18836,0.3113998597423493
-0.18834,0.3097403077353502
-0.1883199999999999,0.3110679493409494
-0.1882999999999999,0.3107360389395497
-0.18828,0.3100722181367501
-0.18826,0.3107360389395497
-0.18824,0.3100722181367501
-0.1882199999999999,0.3107360389395497
-0.1881999999999999,0.3104041285381498
-0.1881799999999999,0.3097403077353502
-0.18816,0.3104041285381498
-0.18814,0.3097403077353502
-0.18812,0.3100722181367501
